Goodie Bad Sales
…
# A tibble: 42 × 2
# Groups:   Partner Name, Market Name [42]
   `Market Name` `Partner Name`                        
   <chr>         <chr>                                 
 1 Charlotte, NC Enderly Coffee Company                
 2 Charlotte, NC Wentworth & Fenn                      
 3 Charlotte, NC Benny Ferrovia's                      
 4 Phoenix, AZ   Beanchain Coffee                      
 5 Charlotte, NC Koibito Poké                          
 6 Boulder, CO   Dry Storage Bakery                    
 7 Charlotte, NC The Baker's Palette, LLC - Mooresville
 8 Phoenix, AZ   Great Harvest Bread                   
 9 Charlotte, NC Two Scoops Creamery                   
10 Denver, CO    We Knead Donut - Wash Park            
# ℹ 32 more rows
…
